<?xml version="1.0" encoding="utf-8"?>
<!DOCTYPE svg PUBLIC "-//W3C//DTD SVG 1.1//EN" "http://www.w3.org/Graphics/SVG/1.1/DTD/svg11.dtd">
<svg version="1.1" xmlns="http://www.w3.org/2000/svg" xmlns:xlink="http://www.w3.org/1999/xlink" x="0px" y="0px" viewBox="0 0 1000 1000" enable-background="new 0 0 1000 1000" xml:space="preserve">
<g><path d="M897.8,592.2H102.2C51.3,592.2,10,550.9,10,500c0-50.9,41.3-92.2,92.2-92.2h795.5c50.9,0,92.2,41.3,92.2,92.2C990,550.9,948.7,592.2,897.8,592.2z M897.8,430.8H655.6c21.3,0,69.2,18.2,69.2,69.2c0,50.9-49.5,69.2-69.2,69.2h242.1c19.6,0,69.2-18.2,69.2-69.2C966.9,449.1,919.1,430.8,897.8,430.8z"/></g>
</svg>